21 6 21
12 49 112
32 80 116
96 40 116
18 52 112
13 64 113
81 73 116
93 82 111
48 75 116
23 30 112
51 81 116
82 98 119
15 11 18
92 74 111
42 17 112
69 41 113
9 8 20
45 84 116
31 25 112
35 23 112
50 85 116
24 40 112
10 14 18
54 77 116
3 51 112
8 50 112
46 2 112
23 89 116
60 85 116
94 47 116
21 58 113
41 48 110
64 73 116
53 89 116
29 69 113
67 69 28
27 94 116
10 19 21
27 38 112
15 44 112
95 96 106
81 24 116
11 5 20
94 94 106
64 77 116
937 957 174
894 63 179
601 828 171
651 426 145
71 675 145
717 82 171
671 792 171
434 969 179
764 568 171
858 608 171
162 676 145
482 30 144
237 402 144
57 542 144
373 378 108
165 475 144
939 138 179
270 842 171
623 80 144
792 249 171
76 414 144
892 852 179
953 77 179
916 23 179
640 150 144
812 1370 182
1478 1335 172
819 1328 182
781 1030 179
966 756 179
822 1400 182
733 1358 182
1107 644 179
1330 972 182
1232 858 182
1145 1303 182
609 1314 182
1219 1364 177
723 1078 179
1142 558 179
973 1005 143
854 1125 179
526 1260 182
1340 1151 182
1056 519 179
2599 3111 217
2201 3735 238
2750 2892 173
2089 2654 209
2558 4752 238
2491 983 209
2816 3233 217
2078 846 182
2060 4007 238
2583 3094 217
2827 2205 209
2578 1295 209
2761 2176 209
2793 2081 209
2194 1610 180
2292 472 183
2225 2028 183
2469 663 209
2946 1624 217
2210 4276 238
2010 887 182
2771 1630 209
2689 4648 238
2867 814 209
2607 1555 209
9980 3553 262
1898 9078 262
6654 8962 257
3403 6037 238
9679 219 262
9743 5180 262
6287 6455 200
7812 5511 262
849 4787 238
6009 7184 262
1606 5900 238
8126 9488 260
2877 3967 238
898 7419 262
5116 515 238
7328 4895 262
9656 874 262
8666 8805 216
4212 626 238
6262 7258 257
5564 3513 238
6597 6372 244
1378 6136 238
3242 5301 238
8293 8748 234
4005 569 238
3847 7267 262
8650 3065 262
4420 9985 262
4521 3885 215
55982 225635 386
651678 78587 509
473219 101329 449
616169 420749 470
410039 441272 418
462743 409845 449
250748 868490 525
697514 585550 509
709807 593522 509
766960 525117 509
50568 968928 525
486626 881792 525
281033 998337 525
959202 8345 525
250664 194764 443
395234 958766 525
287691 315030 389
551853 183854 470
552348 933607 525
738143 954904 525
